{
  "images" : [
    {
      "idiom" : "universal",
      "filename" : "wooden-table-with-view-blurred-beverages-bar-backdrop_43029-507.jpg",
      "scale" : "1x"
    },
    {
      "idiom" : "universal",
      "filename" : "wooden-table-with-view-blurred-beverages-bar-backdrop_43029-508.jpg",
      "scale" : "2x"
    },
    {
      "idiom" : "universal",
      "filename" : "wooden-table-with-view-blurred-beverages-bar-backdrop_43029-509.jpg",
      "scale" : "3x"
    }
  ],
  "info" : {
    "version" : 1,
    "author" : "xcode"
  }
}